<?xml version="1.0" encoding="utf-8"?>
<!-- Generator: Adobe Illustrator 16.0.0, SVG Export Plug-In . SVG Version: 6.00 Build 0)  -->
<!DOCTYPE svg PUBLIC "-//W3C//DTD SVG 1.1//EN" "http://www.w3.org/Graphics/SVG/1.1/DTD/svg11.dtd">
<svg version="1.1" id="Layer_1" xmlns="http://www.w3.org/2000/svg" xmlns:xlink="http://www.w3.org/1999/xlink" x="0px" y="0px"
	 width="60px" height="60px" viewBox="0 0 60 60" enable-background="new 0 0 60 60" xml:space="preserve">
<g>
	<g>
		<polygon fill="#B69C64" points="17,36 20,56 26,56 29,36 		"/>
	</g>
</g>
<polygon fill="#B69C64" points="54,47 33,33 33,16 54,2 "/>
<path fill="#B69C64" d="M14,16v0.025c-4.46,0.26-8,3.949-8,8.475s3.54,8.215,8,8.475V33h28V16H14z"/>
</svg>
